<?xml version="1.0" encoding="UTF-8" standalone="no"?>
<!-- Created with Inkscape (http://www.inkscape.org/) -->
<svg
   xmlns:dc="http://purl.org/dc/elements/1.1/"
   xmlns:cc="http://web.resource.org/cc/"
   xmlns:rdf="http://www.w3.org/1999/02/22-rdf-syntax-ns#"
   xmlns:svg="http://www.w3.org/2000/svg"
   xmlns="http://www.w3.org/2000/svg"
   xmlns:xlink="http://www.w3.org/1999/xlink"
   xmlns:sodipodi="http://sodipodi.sourceforge.net/DTD/sodipodi-0.dtd"
   xmlns:inkscape="http://www.inkscape.org/namespaces/inkscape"
   width="800"
   height="600"
   id="svg2"
   sodipodi:version="0.32"
   inkscape:version="0.45.1"
   version="1.0"
   sodipodi:docbase="/opt/svn/kdebase/workspace/plasma/desktoptheme/widgets"
   sodipodi:docname="iconbutton_2.svg"
   inkscape:output_extension="org.inkscape.output.svg.inkscape">
  <sodipodi:namedview
     id="base"
     pagecolor="#ffffff"
     bordercolor="#666666"
     borderopacity="1.0"
     gridtolerance="10000"
     guidetolerance="10"
     objecttolerance="10"
     inkscape:pageopacity="0.0"
     inkscape:pageshadow="2"
     inkscape:zoom="1"
     inkscape:cx="342.72303"
     inkscape:cy="165.67263"
     inkscape:document-units="px"
     inkscape:current-layer="layer1"
     width="800px"
     height="600px"
     inkscape:window-width="1276"
     inkscape:window-height="952"
     inkscape:window-x="185"
     inkscape:window-y="29"
     showguides="true"
     inkscape:guide-bbox="true" />
  <defs
     id="defs4">
    <linearGradient
       id="linearGradient3183">
      <stop
         offset="0"
         style="stop-color:#ffffff;stop-opacity:1;"
         id="stop3185" />
      <stop
         offset="0.5"
         style="stop-color:#ffffff;stop-opacity:0.75812274;"
         id="stop3189" />
      <stop
         offset="0.75"
         style="stop-color:#ffffff;stop-opacity:0.53429604;"
         id="stop3191" />
      <stop
         offset="1"
         style="stop-color:#ffffff;stop-opacity:0;"
         id="stop3187" />
    </linearGradient>
    <linearGradient
       id="linearGradient3135">
      <stop
         offset="0"
         style="stop-color:#ffffff;stop-opacity:1;"
         id="stop3137" />
      <stop
         offset="1"
         style="stop-color:#ffffff;stop-opacity:0.67870039;"
         id="stop3139" />
    </linearGradient>
    <linearGradient
       id="linearGradient2880"
       inkscape:collect="always">
      <stop
         offset="0"
         style="stop-color:#000000;stop-opacity:1;"
         id="stop2882" />
      <stop
         offset="1"
         style="stop-color:#000000;stop-opacity:0;"
         id="stop2884" />
    </linearGradient>
    <linearGradient
       id="linearGradient4144">
      <stop
         offset="0"
         style="stop-color:#ffffff;stop-opacity:1;"
         id="stop4146" />
      <stop
         offset="1"
         style="stop-color:#ffffff;stop-opacity:0;"
         id="stop4148" />
    </linearGradient>
    <mask
       maskUnits="userSpaceOnUse"
       id="mask4130">
      <rect
         style="opacity:0.47349411;fill:#00bf00;fill-opacity:1;stroke:none"
         id="rect4132"
         width="128.57143"
         ry="34.996651"
         y="17.142857"
         x="90"
         height="184.28572" />
    </mask>
    <linearGradient
       id="linearGradient4368"
       gradientUnits="userSpaceOnUse"
       inkscape:collect="always"
       x1="608.01605"
       x2="650.11676"
       xlink:href="#linearGradient4144"
       gradientTransform="matrix(0.6624804,0,0,0.6260877,174.83885,251.06758)"
       y1="286.34344"
       y2="500.62918" />
    <linearGradient
       id="linearGradient4435"
       gradientUnits="userSpaceOnUse"
       inkscape:collect="always"
       x1="608.01605"
       x2="650.11676"
       xlink:href="#linearGradient4144"
       gradientTransform="matrix(0.6615863,0,0,0.61613,175.49178,253.57608)"
       y1="286.34344"
       y2="500.62918" />
    <linearGradient
       id="linearGradient4448"
       gradientUnits="userSpaceOnUse"
       inkscape:collect="always"
       x1="608.01605"
       x2="650.11676"
       xlink:href="#linearGradient4144"
       gradientTransform="matrix(0.6615863,0,0,0.61613,175.49178,253.57608)"
       y1="286.34344"
       y2="500.62918" />
    <linearGradient
       id="linearGradient4456"
       gradientUnits="userSpaceOnUse"
       inkscape:collect="always"
       x1="608.01605"
       x2="650.11676"
       xlink:href="#linearGradient4144"
       gradientTransform="matrix(0.6615863,0,0,0.61613,175.49178,253.57608)"
       y1="286.34344"
       y2="500.62918" />
    <radialGradient
       r="70.5"
       id="radialGradient5455"
       fx="123.53555"
       fy="215.87373"
       gradientUnits="userSpaceOnUse"
       inkscape:collect="always"
       cy="215.87373"
       cx="123.53555"
       xlink:href="#linearGradient4144" />
    <radialGradient
       r="70.5"
       id="radialGradient5463"
       fx="123.53555"
       fy="215.78514"
       gradientUnits="userSpaceOnUse"
       inkscape:collect="always"
       cy="215.78514"
       cx="123.53555"
       xlink:href="#linearGradient4144" />
    <radialGradient
       r="70.5"
       id="radialGradient5471"
       fx="123.53555"
       fy="215.87373"
       gradientUnits="userSpaceOnUse"
       inkscape:collect="always"
       cy="215.87373"
       cx="123.53555"
       xlink:href="#linearGradient4144" />
    <linearGradient
       id="linearGradient3170"
       gradientUnits="userSpaceOnUse"
       inkscape:collect="always"
       x1="608.01605"
       x2="650.11676"
       xlink:href="#linearGradient4144"
       gradientTransform="matrix(0.6615863,0,0,0.61613,175.49178,253.57608)"
       y1="286.34344"
       y2="500.62918" />
    <linearGradient
       id="linearGradient2804"
       gradientUnits="userSpaceOnUse"
       inkscape:collect="always"
       y2="236.08551"
       x2="-120"
       xlink:href="#linearGradient4144"
       y1="209.99521"
       x1="-120" />
    <linearGradient
       id="linearGradient2808"
       gradientUnits="userSpaceOnUse"
       inkscape:collect="always"
       y2="236.08551"
       x2="-120"
       xlink:href="#linearGradient4144"
       y1="209.99521"
       x1="-120" />
    <linearGradient
       id="linearGradient2811"
       gradientUnits="userSpaceOnUse"
       inkscape:collect="always"
       x1="-120"
       x2="-120"
       xlink:href="#linearGradient4144"
       gradientTransform="translate(-116.5,0)"
       y1="209.99521"
       y2="236.08551" />
    <linearGradient
       id="linearGradient3527"
       gradientUnits="userSpaceOnUse"
       inkscape:collect="always"
       x1="633.21411"
       x2="633.21411"
       xlink:href="#linearGradient3359"
       gradientTransform="translate(-631.37328,-364.56846)"
       y1="488.62131"
       y2="409.60211" />
    <linearGradient
       id="linearGradient3525"
       gradientUnits="userSpaceOnUse"
       inkscape:collect="always"
       x1="620.83978"
       x2="620.83978"
       xlink:href="#linearGradient3336"
       gradientTransform="matrix(1.0903377,0,0,1.0903377,-688.53791,-401.07773)"
       y1="467.21613"
       y2="342.09052" />
    <linearGradient
       id="linearGradient3452"
       gradientUnits="userSpaceOnUse"
       inkscape:collect="always"
       x1="353.65671"
       x2="353.65671"
       xlink:href="#linearGradient3371"
       gradientTransform="matrix(1,0,0,0.8969404,-360.20455,-396.34737)"
       y1="435.98718"
       y2="352.9791" />
    <linearGradient
       id="linearGradient3449"
       gradientUnits="userSpaceOnUse"
       inkscape:collect="always"
       x1="353.65671"
       x2="353.65671"
       xlink:href="#linearGradient3371"
       gradientTransform="matrix(1,0,0,0.8969404,-360.20455,-273.34737)"
       y1="435.98718"
       y2="352.9791" />
    <linearGradient
       id="linearGradient3381"
       gradientUnits="userSpaceOnUse"
       inkscape:collect="always"
       x1="353.65671"
       x2="353.65671"
       xlink:href="#linearGradient3371"
       gradientTransform="matrix(1,0,0,0.8969404,-369.57955,-285.47237)"
       y1="435.98718"
       y2="352.9791" />
    <linearGradient
       id="linearGradient3371"
       inkscape:collect="always">
      <stop
         offset="0"
         style="stop-color:#ffffff;stop-opacity:1;"
         id="stop3373" />
      <stop
         offset="1"
         style="stop-color:#ffffff;stop-opacity:0;"
         id="stop3375" />
    </linearGradient>
    <linearGradient
       id="linearGradient3377"
       gradientUnits="userSpaceOnUse"
       inkscape:collect="always"
       x1="353.65671"
       x2="353.65671"
       xlink:href="#linearGradient3371"
       gradientTransform="matrix(1,0,0,0.8969404,-369.57955,-408.47237)"
       y1="435.98718"
       y2="352.9791" />
    <linearGradient
       id="linearGradient3365"
       gradientUnits="userSpaceOnUse"
       inkscape:collect="always"
       x1="633.21411"
       x2="633.21411"
       xlink:href="#linearGradient3359"
       gradientTransform="translate(-631.37328,-364.56846)"
       y1="488.62131"
       y2="409.60211" />
    <linearGradient
       id="linearGradient3359"
       inkscape:collect="always">
      <stop
         offset="0"
         style="stop-color:#ffffff;stop-opacity:1;"
         id="stop3361" />
      <stop
         offset="1"
         style="stop-color:#ffffff;stop-opacity:0;"
         id="stop3363" />
    </linearGradient>
    <linearGradient
       id="linearGradient3345"
       gradientUnits="userSpaceOnUse"
       inkscape:collect="always"
       x1="620.83978"
       x2="620.83978"
       xlink:href="#linearGradient3336"
       gradientTransform="matrix(1.0903377,0,0,1.0903377,-688.53791,-401.07773)"
       y1="467.21613"
       y2="342.09052" />
    <linearGradient
       id="linearGradient3336"
       inkscape:collect="always">
      <stop
         offset="0"
         style="stop-color:#ffffff;stop-opacity:1;"
         id="stop3338" />
      <stop
         offset="1"
         style="stop-color:#ffffff;stop-opacity:0;"
         id="stop3340" />
    </linearGradient>
    <linearGradient
       id="linearGradient2886"
       gradientUnits="userSpaceOnUse"
       inkscape:collect="always"
       y2="-10.779526"
       x2="1.8579178"
       xlink:href="#linearGradient2880"
       y1="72.220474"
       x1="1.8579178" />
    <linearGradient
       id="linearGradient2949"
       gradientUnits="userSpaceOnUse"
       inkscape:collect="always"
       y2="-10.779526"
       x2="1.8579178"
       xlink:href="#linearGradient2880"
       y1="72.220474"
       x1="1.8579178" />
    <linearGradient
       id="linearGradient2952"
       gradientUnits="userSpaceOnUse"
       inkscape:collect="always"
       x1="1.8579178"
       x2="1.8579178"
       xlink:href="#linearGradient2880"
       gradientTransform="translate(-501.85791,216.742)"
       y1="72.220474"
       y2="-10.779526" />
    <radialGradient
       r="64"
       id="radialGradient3141"
       fx="94.5"
       fy="504"
       gradientUnits="userSpaceOnUse"
       inkscape:collect="always"
       cy="504"
       cx="94.5"
       xlink:href="#linearGradient3135"
       gradientTransform="translate(0,-174)" />
    <radialGradient
       r="16"
       id="radialGradient3177"
       fx="61"
       fy="43.000011"
       gradientUnits="userSpaceOnUse"
       inkscape:collect="always"
       cy="43.000011"
       cx="61"
       xlink:href="#linearGradient3183" />
    <radialGradient
       r="16"
       id="radialGradient3179"
       fx="61"
       fy="43.000011"
       gradientUnits="userSpaceOnUse"
       inkscape:collect="always"
       cy="43.000011"
       cx="61"
       xlink:href="#linearGradient3183" />
    <radialGradient
       r="16"
       id="radialGradient3181"
       fx="61"
       fy="43.000011"
       gradientUnits="userSpaceOnUse"
       inkscape:collect="always"
       cy="43.000011"
       cx="61"
       xlink:href="#linearGradient3183" />
  </defs>
  <metadata
     id="metadata7">
    <rdf:RDF>
      <cc:Work
         rdf:about="">
        <dc:format>image/svg+xml</dc:format>
        <dc:type
           rdf:resource="http://purl.org/dc/dcmitype/StillImage" />
      </cc:Work>
    </rdf:RDF>
  </metadata>
  <g
     inkscape:label="Layer 1"
     id="layer1"
     inkscape:groupmode="layer">
    <rect
       style="opacity:0.41000001;fill:#888a85;fill-opacity:0.69832405;stroke:#888a85;stroke-width:1;stroke-linecap:round;stroke-miterlimit:4;stroke-dasharray:none;stroke-opacity:1"
       id="rect3194"
       width="794"
       rx="15.135437"
       ry="15.135437"
       y="1.6438613e-05"
       x="2"
       height="598" />
    <g
       inkscape:label="#g5449"
       style="opacity:0"
       transform="translate(438.4062,-13.435025)"
       id="background-pressed">
      <rect
         style="opacity:0;fill:url(#radialGradient5455);fill-opacity:1;fill-rule:evenodd;stroke:none;stroke-width:1.35680544;stroke-linecap:square;stroke-linejoin:round;stroke-miterlimit:4;stroke-dasharray:none;stroke-dashoffset:0;stroke-opacity:1"
         id="rect5451"
         width="141"
         ry="17.958969"
         y="145.37373"
         x="53.035545"
         height="141"
         inkscape:label="#rect8674" />
    </g>
    <g
       inkscape:label="#g4450"
       transform="translate(77.512829,-369.99999)"
       id="foreground-hover-old">
      <path
         style="opacity:0.41000001;fill:#888a85;fill-opacity:1;fill-rule:evenodd;stroke:none;stroke-width:0.80000001;stroke-linecap:round;stroke-linejoin:round;stroke-miterlimit:4;stroke-dasharray:none;stroke-dashoffset:0;stroke-opacity:1"
         d="M 536.21875,443.25 C 526.10453,443.25 517.9375,451.41703 517.9375,461.53125 L 517.9375,566.09375 C 517.9375,576.20798 526.10454,584.34374 536.21875,584.34375 L 640.78125,584.34375 C 650.89547,584.34375 659.03122,576.20801 659.03125,566.09375 L 659.03125,461.53125 C 659.03125,451.41702 650.89549,443.25 640.78125,443.25 L 536.21875,443.25 z M 536.21875,444.0625 L 640.78125,444.0625 C 650.46613,444.0625 658.25,451.84638 658.25,461.53125 L 658.25,566.09375 C 658.24997,575.77865 650.46611,583.5625 640.78125,583.5625 L 536.21875,583.5625 C 526.5339,583.56249 518.75,575.77862 518.75,566.09375 L 518.75,461.53125 C 518.75,451.8464 526.53389,444.0625 536.21875,444.0625 z "
         id="path4452" />
      <path
         style="opacity:0.66292138;fill:url(#linearGradient4456);fill-opacity:1;fill-rule:evenodd;stroke:none;stroke-width:1;stroke-linecap:square;stroke-linejoin:round;stroke-miterlimit:4;stroke-dashoffset:0;stroke-opacity:1"
         d="M 542.4422,443.93562 C 572.03406,443.51626 636.24159,443.93562 636.24159,443.93562 C 654.8305,443.64869 658.89087,453.55248 658.64087,465.49811 L 658.64087,490.44381 C 658.64087,500.62907 609.58677,518.1676 565.68263,518.1676 C 521.81276,518.1676 518.5349,509.79746 518.5349,490.44381 L 518.5349,465.49811 C 518.5349,454.30248 521.95428,443.56458 542.4422,443.93562 z"
         sodipodi:nodetypes="cccczccc"
         id="path4454" />
    </g>
    <g
       inkscape:label="#g5457"
       style="opacity:0"
       id="foreground"
       transform="translate(23.334522,-16.970563)">
      <rect
         style="opacity:0;fill:url(#radialGradient5463);fill-opacity:1;fill-rule:evenodd;stroke:none;stroke-width:1.35680544;stroke-linecap:square;stroke-linejoin:round;stroke-miterlimit:4;stroke-dasharray:none;stroke-dashoffset:0;stroke-opacity:1"
         id="rect5459"
         width="141"
         ry="17.958969"
         y="145.37373"
         x="53.035545"
         height="141"
         inkscape:label="#rect8674" />
    </g>
    <g
       inkscape:label="#g5465"
       style="opacity:0"
       transform="translate(236.88077,-14.849243)"
       id="background-hover">
      <rect
         style="opacity:0;fill:url(#radialGradient5471);fill-opacity:1;fill-rule:evenodd;stroke:none;stroke-width:1.35680544;stroke-linecap:square;stroke-linejoin:round;stroke-miterlimit:4;stroke-dasharray:none;stroke-dashoffset:0;stroke-opacity:1"
         id="rect5467"
         width="141"
         ry="17.958969"
         y="145.37373"
         x="53.035545"
         height="141"
         inkscape:label="#rect8674" />
    </g>
    <g
       inkscape:label="#g4450"
       transform="translate(-211.74853,-2.1213204)"
       id="foreground-hover">
      <path
         style="opacity:0.41000001;fill:#000000;fill-opacity:1;fill-rule:evenodd;stroke:none;stroke-width:0.80000001;stroke-linecap:round;stroke-linejoin:round;stroke-miterlimit:4;stroke-dasharray:none;stroke-dashoffset:0;stroke-opacity:1"
         id="path3186"
         sodipodi:nodetypes="cccccccccccccccccc"
         d="M 536.21875,443.60355 C 526.10453,443.60355 517.9375,451.41703 517.9375,461.53125 L 517.9375,566.09375 C 517.9375,576.20798 526.10454,584.34374 536.21875,584.34375 L 640.78125,584.34375 C 650.89547,584.34375 659.03122,576.20801 659.03125,566.09375 L 659.03125,461.53125 C 659.03125,451.41702 650.63032,443.25 640.51608,443.25 L 536.21875,443.60355 z M 536.21875,444.41605 L 640.51608,444.0625 C 650.20096,444.0625 658.25,451.84638 658.25,461.53125 L 658.25,566.09375 C 658.24997,575.77865 650.46611,583.5625 640.78125,583.5625 L 536.21875,583.5625 C 526.5339,583.56249 518.75,575.77862 518.75,566.09375 L 518.75,461.53125 C 518.75,451.8464 526.53389,444.41605 536.21875,444.41605 z " />
      <path
         style="opacity:0.33;fill:#7a7a7a;fill-opacity:1;fill-rule:evenodd;stroke:none;stroke-width:0.80000001;stroke-linecap:round;stroke-linejoin:round;stroke-miterlimit:4;stroke-dasharray:none;stroke-dashoffset:0;stroke-opacity:1"
         d="M 536.21875,444.0625 L 640.78125,444.0625 C 650.46613,444.0625 658.25,451.84638 658.25,461.53125 L 658.25,566.09375 C 658.24997,575.77865 650.46611,583.5625 640.78125,583.5625 L 536.21875,583.5625 C 526.5339,583.56249 518.75,575.77862 518.75,566.09375 L 518.75,461.53125 C 518.75,451.8464 528.47843,443.79733 536.21875,444.0625 z "
         sodipodi:nodetypes="ccccccccc"
         id="path3192" />
    </g>
    <g
       inkscape:label="#g4450"
       id="foreground-pressed"
       transform="translate(20.251462,-2.1213204)">
      <path
         style="opacity:0.41000001;fill:#000000;fill-opacity:1;fill-rule:evenodd;stroke:none;stroke-width:0.80000001;stroke-linecap:round;stroke-linejoin:round;stroke-miterlimit:4;stroke-dasharray:none;stroke-dashoffset:0;stroke-opacity:1"
         d="M 536.21875,443.60355 C 526.10453,443.60355 517.9375,451.41703 517.9375,461.53125 L 517.9375,566.09375 C 517.9375,576.20798 526.10454,584.34374 536.21875,584.34375 L 640.78125,584.34375 C 650.89547,584.34375 659.03122,576.20801 659.03125,566.09375 L 659.03125,461.53125 C 659.03125,451.41702 650.63032,443.25 640.51608,443.25 L 536.21875,443.60355 z M 536.21875,444.41605 L 640.51608,444.0625 C 650.20096,444.0625 658.25,451.84638 658.25,461.53125 L 658.25,566.09375 C 658.24997,575.77865 650.46611,583.5625 640.78125,583.5625 L 536.21875,583.5625 C 526.5339,583.56249 518.75,575.77862 518.75,566.09375 L 518.75,461.53125 C 518.75,451.8464 526.53389,444.41605 536.21875,444.41605 z "
         sodipodi:nodetypes="cccccccccccccccccc"
         id="path2191" />
      <path
         style="opacity:0.13;fill:#ffffff;fill-opacity:1;fill-rule:evenodd;stroke:none;stroke-width:0.80000001;stroke-linecap:round;stroke-linejoin:round;stroke-miterlimit:4;stroke-dasharray:none;stroke-dashoffset:0;stroke-opacity:1"
         d="M 536.21875,444.0625 L 640.78125,444.0625 C 650.46613,444.0625 658.25,451.84638 658.25,461.53125 L 658.25,566.09375 C 658.24997,575.77865 650.46611,583.5625 640.78125,583.5625 L 536.21875,583.5625 C 526.5339,583.56249 518.75,575.77862 518.75,566.09375 L 518.75,461.53125 C 518.75,451.8464 528.47843,443.79733 536.21875,444.0625 z "
         sodipodi:nodetypes="ccccccccc"
         id="path2193" />
    </g>
    <path
       style="opacity:1;fill:url(#radialGradient3181);fill-opacity:1;stroke:none;stroke-width:1;stroke-linecap:round;stroke-miterlimit:4;stroke-dasharray:none;stroke-opacity:1"
       id="minibutton"
       sodipodi:cx="61"
       sodipodi:cy="43.000011"
       sodipodi:type="arc"
       d="M 77,43.000011 A 16,16 0 1 1 45,43.000011 A 16,16 0 1 1 77,43.000011 z"
       transform="matrix(1.25,0,0,1.25,-11.25,-14.750003)"
       inkscape:label="#path2202"
       sodipodi:rx="16"
       sodipodi:ry="16" />
    <path
       style="opacity:1;fill:url(#radialGradient3179);fill-opacity:1;stroke:none;stroke-width:1;stroke-linecap:round;stroke-miterlimit:4;stroke-dasharray:none;stroke-opacity:1"
       id="minibutton-pressed"
       sodipodi:cx="61"
       sodipodi:cy="43.000011"
       sodipodi:type="arc"
       d="M 77,43.000011 A 16,16 0 1 1 45,43.000011 A 16,16 0 1 1 77,43.000011 z"
       transform="matrix(1.25,0,0,1.25,259.74999,-14.750003)"
       inkscape:label="#path3176"
       sodipodi:rx="16"
       sodipodi:ry="16" />
    <path
       style="opacity:1;fill:url(#radialGradient3177);fill-opacity:1;stroke:none;stroke-width:1;stroke-linecap:round;stroke-miterlimit:4;stroke-dasharray:none;stroke-opacity:1"
       id="minibutton-hover"
       sodipodi:cx="61"
       sodipodi:cy="43.000011"
       sodipodi:type="arc"
       d="M 77,43.000011 A 16,16 0 1 1 45,43.000011 A 16,16 0 1 1 77,43.000011 z"
       transform="matrix(1.25,0,0,1.25,125.74999,-14.750003)"
       inkscape:label="#path3179"
       sodipodi:rx="16"
       sodipodi:ry="16" />
    <image
       id="image2920"
       width="152"
       y="251.05678"
       xlink:href="data:image/png;base64,iVBORw0KGgoAAAANSUhEUgAAAJgAAACYCAYAAAAYwiAhAAAABHNCSVQICAgIfAhkiAAAAAlwSFlz AAAN1wAADdcBQiibeAAAABl0RVh0U29mdHdhcmUAd3d3Lmlua3NjYXBlLm9yZ5vuPBoAAAYjSURB VHic7ZrtcqNGEEUvsvyxSd7/TbOxJEvkB7RomsHyJnUrAZ9TNTVYhsEuTt0ezdD1fS9JnQZy30k6 lL4et66FfdA3+l7SrXGcP5tdc9RSqixSbk9qC5dlUxoLtkff+Dm3LNR17G8anndLsu44/tAS62ml VfE+SzBE2wZVrPxZCJXbdaXF7+9jRIJlubJMx7E9p+MqWk0xpNo2tSRmwUKkj7Fdxj6e/3W89i5Z TrAsV0j1UvoqWi6ZMQ5sn5CslsQs1kXSufSZm0qChWBHDUK9SHotLWSrSbY2F4NtUtMrJ1fIdNLg wUnLZx/XdiFYTq+Q6G1sP9Lxq6Y0yyl2KDdAtG3Sl+NcGiO5zhqkCgfys69fCvo4oabXqwahfkst RIske9ZcMIl52NapywxZsCiLJ0nvmp5/lWu2dFETLMR51SDU76n9pinJsmBxE0rkfsgpFOUxBHvX NE2K9Kql9L6M8SjBQrI/xv6H5mVyLcFg26wl2FnTsz+kcz4a7SDpEAnW+vYYgkWJDMHetJzok177 oyZYTPAjlCK18twsfh9eXGuJzIJFisVcLGTLCRbXMffaF3kuFiXvoqliSZNcMelvffnrcolcW6Z4 a/S5Bte9SdgHdZG1JdebJrlyVbs7ldfBWqv3eaH1RcsF169sF8H2aG0T1cl8XYSvOz2dyjpY3Yds bRPVlif4EoLthbwelvcXQ661LcQcOPcSKS3lqu3Y+CyXVtgXraD4ihOLhff6uk5NsrXWei/s0R8I /39ab1XEs77p17yQGq/r5OPWha2XDZFpP6yFRa+lFy1HFl609hDXWusc+B488mDVlcMnAzy6AXxP fsmV1gT9MyMBMg9d4RsgWEEwsIJgYAXBwAqCgRUEAysIBlYQDKwgGFhBMLCCYGAFwcAKgoEVBAMr CAZWEAysIBhYQTCwgmBgBcHACoKBFQQDKwgGVhAMrCAYWEEwsIJgYAXBwAqCgRUEAysIBlYQDKwg GFhBMLCCYGAFwcAKgoEVBAMrCAZWEAysIBhYQTCwgmBgBcHACoKBFQQDKwgGVhAMrCAYWEEwsIJg YAXBwAqCgRUEAysIBlYQDKwgGFhBMLCCYGAFwcAKgoEVBAMrCAZWEAysIBhYQTCwgmBgBcHACoKB FQQDKwgGVhAMrCAYWEEwsIJgYAXBwAqCgRUEAysIBlYQDKwgGFhBMLCCYGAFwcAKgoEVBAMrCAZW EAysIBhYQTCwgmBgBcHACoKBFQQDKwgGVhAMrCAYWEEwsIJgYAXBwAqCgRUEAysIBlYQDKwgGFhB MLCCYGAFwcAKgoEVBAMrCAZWWoL1jQbQ4qErh8aJjwaC780vuXIoJ7aMrIMh2/fjkQerrhzLyfn4 llpfjuu5le5f/TvwX9F6lmtetBxZeHEsH7YubLU4pybgZ38obJN/4sXdqWMZ5Cbp2mgfjc9aKUVy 7YMcEGtetJy4ai7bPcGqoTHAh6RLOv6Q9KTpy8FhbCEWgu2DWtVumjvQcqPKddOYYFEvs5lx8Tn1 Z01ydeM1WTDk2hd1zpWdiJYdyaJd4/qj5jU0BIsBTpLeJb1oSLtIrpuk5/HnJ5FgeyMnWCRTyBRO 5D58qUl2yyUy5KoDteS6juc9aRIMufZFq7KdNTjxl6Sf43GWLJIsJLuXyDzIJQ30rEmuTlNUvoy/ i5IZ8iHZPogEy5UtB08I9nM8ftdSsKtKicyWHlPLyXWR9KZBrhAsJxiC7YO8aBqyXMYWqfVT0p+a BIsUm5XJWiKj7J00n8xHcoXBWbBWgiHaNulLXxPsomnqVFPslM6ZlcibBiFibeuseRr16QYnTeXx qLlgWSoE2yZ1K6hWtzo/D9G+nGDdOEhXbhKD50l/lMe8TIFY+yCXyLzIGlUswia3+DwvuM7WwWKg epM8cCRXTq9OTPL3Ri6RdZUhwqauky6+QaqxVVRvkldws1i1NOb0QrJtUzesW9uIayv5s/SS5pvd 0iRZKyKrWF/ZJkK2bfDoLYq6qd3ag6xbRYsEC/IJMVis2OeS2Gl97oVY26SKVt/zqiWz9TbF7L2w ru+Hfhww91mkQ+Oz1jWwH+qSRZWsClffB5Ok/m/+F7PoyTY6JwAAAABJRU5ErkJggg== "
       x="590.0946"
       height="152" />
    <g
       id="background">
      <path
         style="opacity:0.41000001;fill:#000000;fill-opacity:1;fill-rule:evenodd;stroke:none;stroke-width:0.80000001;stroke-linecap:round;stroke-linejoin:round;stroke-miterlimit:4;stroke-dasharray:none;stroke-dashoffset:0;stroke-opacity:1"
         id="path3178"
         d="M 124.84489,437.12868 C 114.73067,437.12868 106.56364,445.29571 106.56364,455.40993 L 106.56364,559.97243 C 106.56364,570.08666 114.73068,578.22242 124.84489,578.22243 L 229.40739,578.22243 C 239.52161,578.22243 247.65736,570.08669 247.65739,559.97243 L 247.65739,455.40993 C 247.65739,445.2957 239.52163,437.12868 229.40739,437.12868 L 124.84489,437.12868 z M 124.84489,437.94118 L 229.40739,437.94118 C 239.09227,437.94118 246.87614,445.72506 246.87614,455.40993 L 246.87614,559.97243 C 246.87611,569.65733 239.09225,577.44118 229.40739,577.44118 L 124.84489,577.44118 C 115.16004,577.44117 107.37614,569.6573 107.37614,559.97243 L 107.37614,455.40993 C 107.37614,445.72508 115.16003,437.94118 124.84489,437.94118 z " />
      <path
         style="opacity:0.23;fill:#000000;fill-opacity:1;fill-rule:evenodd;stroke:none;stroke-width:0.80000001;stroke-linecap:round;stroke-linejoin:round;stroke-miterlimit:4;stroke-dasharray:none;stroke-dashoffset:0;stroke-opacity:1"
         d="M 124.23236,437.13444 L 229.98964,437.13444 C 239.78519,437.13444 247.658,445.00691 247.658,454.80199 L 247.658,560.55445 C 247.65797,570.34957 239.78517,578.222 229.98964,578.222 L 124.23236,578.222 C 114.43684,578.22199 106.564,570.34954 106.564,560.55445 L 106.564,454.80199 C 106.564,445.00693 116.40359,436.86626 124.23236,437.13444 z "
         sodipodi:nodetypes="ccccccccc"
         id="path10145" />
    </g>
  </g>
</svg>
