<?xml version="1.0" encoding="UTF-8" standalone="no"?>
<!-- Created with Inkscape (http://www.inkscape.org/) -->
<svg
   xmlns:ns="http://creativecommons.org/ns#"
   xmlns:dc="http://purl.org/dc/elements/1.1/"
   xmlns:cc="http://web.resource.org/cc/"
   xmlns:rdf="http://www.w3.org/1999/02/22-rdf-syntax-ns#"
   xmlns:svg="http://www.w3.org/2000/svg"
   xmlns="http://www.w3.org/2000/svg"
   xmlns:xlink="http://www.w3.org/1999/xlink"
   xmlns:sodipodi="http://sodipodi.sourceforge.net/DTD/sodipodi-0.dtd"
   xmlns:inkscape="http://www.inkscape.org/namespaces/inkscape"
   id="svg2"
   sodipodi:version="0.32"
   inkscape:version="0.45.1"
   width="20"
   height="20"
   sodipodi:docbase="/home/thomas/kde/src/kdebase/workspace/plasma/desktoptheme/widgets"
   sodipodi:docname="panel-background.svg"
   inkscape:output_extension="org.inkscape.output.svg.inkscape"
   inkscape:export-filename="/home/pinheiro/Documents/pics/estilo/plasma/raptor/main menusnoframe.png"
   inkscape:export-xdpi="90"
   inkscape:export-ydpi="90"
   version="1.0">
  <sodipodi:namedview
     inkscape:window-height="814"
     inkscape:window-width="1086"
     inkscape:pageshadow="2"
     inkscape:pageopacity="0.0"
     guidetolerance="10.0"
     gridtolerance="10.0"
     objecttolerance="10.0"
     borderopacity="1.0"
     bordercolor="#666666"
     pagecolor="#ffffff"
     id="base"
     inkscape:zoom="15"
     inkscape:cx="9.4666667"
     inkscape:cy="12.253331"
     inkscape:window-x="584"
     inkscape:window-y="150"
     inkscape:current-layer="svg2"
     showgrid="false"
     showguides="true"
     inkscape:guide-bbox="true"
     showborder="false">
    <inkscape:grid
       id="grid2987"
       type="xygrid" />
  </sodipodi:namedview>
  <metadata
     id="metadata7">
    <rdf:RDF>
      <ns:Work
         rdf:about="">
        <dc:format>image/svg+xml</dc:format>
        <dc:type
           rdf:resource="http://purl.org/dc/dcmitype/StillImage" />
      </ns:Work>
      <cc:Work
         rdf:about="">
        <dc:format>image/svg+xml</dc:format>
        <dc:type
           rdf:resource="http://purl.org/dc/dcmitype/StillImage" />
      </cc:Work>
    </rdf:RDF>
  </metadata>
  <defs
     id="defs5">
    <linearGradient
       inkscape:collect="always"
       id="linearGradient3031">
      <stop
         style="stop-color:#ffffff;stop-opacity:1;"
         offset="0"
         id="stop3033" />
      <stop
         style="stop-color:#ffffff;stop-opacity:0;"
         offset="1"
         id="stop3035" />
    </linearGradient>
    <linearGradient
       id="linearGradient3018">
      <stop
         id="stop3020"
         offset="0"
         style="stop-color:#ffffff;stop-opacity:0.627451;" />
      <stop
         style="stop-color:#ffffff;stop-opacity:0.94117647;"
         offset="0.5"
         id="stop3022" />
      <stop
         id="stop3024"
         offset="1"
         style="stop-color:#ffffff;stop-opacity:0.70588237;" />
    </linearGradient>
    <linearGradient
       id="linearGradient3004">
      <stop
         style="stop-color:#ffffff;stop-opacity:0.70588237;"
         offset="0"
         id="stop3006" />
      <stop
         id="stop3012"
         offset="0.5"
         style="stop-color:#ffffff;stop-opacity:0.94117647;" />
      <stop
         style="stop-color:#ffffff;stop-opacity:0.70588237;"
         offset="1"
         id="stop3008" />
    </linearGradient>
    <linearGradient
       id="linearGradient3338">
      <stop
         style="stop-color:#ffffff;stop-opacity:0.627451;"
         offset="0"
         id="stop3340" />
      <stop
         style="stop-color:#ffffff;stop-opacity:0;"
         offset="1"
         id="stop3342" />
    </linearGradient>
    <linearGradient
       id="linearGradient3330">
      <stop
         style="stop-color:#ffffff;stop-opacity:0.70588237;"
         offset="0"
         id="stop3332" />
      <stop
         style="stop-color:#ffffff;stop-opacity:0.03921569;"
         offset="1"
         id="stop3334" />
    </linearGradient>
    <linearGradient
       id="linearGradient3209">
      <stop
         style="stop-color:#ffffff;stop-opacity:0.68727273;"
         offset="0"
         id="stop3211" />
      <stop
         style="stop-color:#787878;stop-opacity:0;"
         offset="1"
         id="stop3213" />
    </linearGradient>
    <linearGradient
       id="linearGradient3139">
      <stop
         style="stop-color:#ffffff;stop-opacity:0.90196079;"
         offset="0"
         id="stop3141" />
      <stop
         style="stop-color:#ffffff;stop-opacity:0.70588237;"
         offset="1"
         id="stop3143" />
    </linearGradient>
    <radialGradient
       inkscape:collect="always"
       xlink:href="#linearGradient3209"
       id="radialGradient3142"
       gradientUnits="userSpaceOnUse"
       gradientTransform="matrix(1,0,0,0.962963,0,32.309553)"
       cx="2254.4773"
       cy="872.35931"
       fx="2253.24"
       fy="870.81567"
       r="2.3864853" />
    <linearGradient
       inkscape:collect="always"
       xlink:href="#linearGradient3031"
       id="linearGradient3144"
       gradientUnits="userSpaceOnUse"
       gradientTransform="matrix(-1,0,0,1,4520,0)"
       x1="2270"
       y1="862.36218"
       x2="2270"
       y2="876.36218" />
    <linearGradient
       inkscape:collect="always"
       xlink:href="#linearGradient3018"
       id="linearGradient3146"
       gradientUnits="userSpaceOnUse"
       gradientTransform="matrix(-1,0,0,1,4520,0)"
       x1="2251"
       y1="875.36218"
       x2="2257"
       y2="869.36218" />
    <linearGradient
       inkscape:collect="always"
       xlink:href="#linearGradient3338"
       id="linearGradient3148"
       gradientUnits="userSpaceOnUse"
       x1="2270"
       y1="875.36218"
       x2="2270"
       y2="880.36218" />
    <linearGradient
       inkscape:collect="always"
       xlink:href="#linearGradient3330"
       id="linearGradient3150"
       gradientUnits="userSpaceOnUse"
       x1="2251"
       y1="875.36218"
       x2="2251"
       y2="881.36218" />
    <linearGradient
       inkscape:collect="always"
       xlink:href="#linearGradient3031"
       id="linearGradient3152"
       gradientUnits="userSpaceOnUse"
       x1="2270"
       y1="862.36218"
       x2="2270"
       y2="876.36218" />
    <radialGradient
       inkscape:collect="always"
       xlink:href="#linearGradient3209"
       id="radialGradient3154"
       gradientUnits="userSpaceOnUse"
       gradientTransform="matrix(1,0,0,0.962963,0,32.309553)"
       cx="2254.4773"
       cy="872.35931"
       fx="2253.24"
       fy="870.81567"
       r="2.3864853" />
    <linearGradient
       inkscape:collect="always"
       xlink:href="#linearGradient3004"
       id="linearGradient3156"
       gradientUnits="userSpaceOnUse"
       x1="2251"
       y1="875.36218"
       x2="2257"
       y2="869.36218" />
    <linearGradient
       inkscape:collect="always"
       xlink:href="#linearGradient3031"
       id="linearGradient5375"
       gradientUnits="userSpaceOnUse"
       x1="2263"
       y1="-862.36218"
       x2="2263"
       y2="-876.36218"
       gradientTransform="matrix(1.166667,0,0,-1,-2625.292,-868.67468)" />
    <linearGradient
       inkscape:collect="always"
       xlink:href="#linearGradient3139"
       id="linearGradient5378"
       gradientUnits="userSpaceOnUse"
       spreadMethod="reflect"
       x1="2260"
       y1="869.36218"
       x2="2263"
       y2="869.36218"
       gradientTransform="matrix(1.1666668,0,0,1,-2625.2917,-868.67468)" />
    <linearGradient
       inkscape:collect="always"
       xlink:href="#linearGradient3139"
       id="linearGradient7331"
       gradientUnits="userSpaceOnUse"
       gradientTransform="translate(-2250.0001,-868.36218)"
       spreadMethod="reflect"
       x1="2260"
       y1="869.36218"
       x2="2263"
       y2="869.36218" />
    <linearGradient
       inkscape:collect="always"
       xlink:href="#linearGradient3031"
       id="linearGradient7334"
       gradientUnits="userSpaceOnUse"
       gradientTransform="matrix(1,0,0,-1,-2250,-868.36218)"
       x1="2263"
       y1="-862.36218"
       x2="2263"
       y2="-876.36218" />
  </defs>
  <path
     style="fill:#000000;fill-opacity:1;stroke:none;stroke-width:0;stroke-linecap:round;stroke-linejoin:round;stroke-miterlimit:4;stroke-dasharray:none;stroke-dashoffset:4.15;stroke-opacity:1"
     d="M 0,2.2190796e-13 L 50,2.2190796e-13 L 50,20 L 0,20 L 0,2.2190796e-13 z "
     id="center" />
  <g
     id="topleft"
     transform="translate(-2250,-868.36218)">
    <path
       style="opacity:1;fill:#000000;fill-opacity:1;stroke:none;stroke-width:0;stroke-linecap:round;stroke-linejoin:round;stroke-miterlimit:4;stroke-dasharray:none;stroke-dashoffset:4.15;stroke-opacity:1"
       d="M 2250,875.36218 C 2250,871.48418 2253.122,868.36218 2257,868.36218 L 2257,875.36218 L 2250,875.36218 z "
       id="path3088"
       sodipodi:nodetypes="cccc" />
    <path
       id="path3044"
       d="M 2257,868.36218 C 2253.1281,868.36218 2250,871.47187 2250,875.34375 L 2250,875.36218 L 2257,875.36218 L 2257,868.36218 z "
       style="opacity:1;fill:url(#linearGradient3152);fill-opacity:1;stroke:none;stroke-width:0;stroke-linecap:round;stroke-linejoin:round;stroke-miterlimit:4;stroke-dasharray:none;stroke-dashoffset:4.15;stroke-opacity:1"
       sodipodi:nodetypes="ccccc" />
    <path
       transform="matrix(0.7403416,-0.1013013,-0.1107672,0.8221857,680.74547,382.70231)"
       d="M 2256.8638 872.35931 A 2.3864853 2.2980971 0 1 1  2252.0908,872.35931 A 2.3864853 2.2980971 0 1 1  2256.8638 872.35931 z"
       sodipodi:ry="2.2980971"
       sodipodi:rx="2.3864853"
       sodipodi:cy="872.35931"
       sodipodi:cx="2254.4773"
       id="path3207"
       style="opacity:1;fill:url(#radialGradient3154);fill-opacity:1;stroke:none;stroke-width:0;stroke-linecap:round;stroke-linejoin:round;stroke-miterlimit:4;stroke-dasharray:none;stroke-dashoffset:4.15;stroke-opacity:1"
       sodipodi:type="arc" />
    <path
       sodipodi:nodetypes="ccccccc"
       id="rect2985"
       d="M 2257,868.36218 C 2253.1208,868.36218 2250,871.48299 2250,875.36218 L 2251,875.36218 L 2251,875.33093 C 2251,872.02208 2253.6599,869.36218 2256.9688,869.36218 L 2257,869.36218 L 2257,868.36218 z "
       style="opacity:1;fill:url(#linearGradient3156);fill-opacity:1;stroke:none;stroke-width:0;stroke-linecap:round;stroke-linejoin:round;stroke-miterlimit:4;stroke-dasharray:none;stroke-dashoffset:4.15;stroke-opacity:1" />
  </g>
  <path
     style="opacity:1;fill:#000000;fill-opacity:1;stroke:none;stroke-width:0;stroke-linecap:round;stroke-linejoin:round;stroke-miterlimit:4;stroke-dasharray:none;stroke-dashoffset:4.15;stroke-opacity:1"
     d="M 0,13 C 0,16.878 3.122,20 7,20 L 7,13 L 0,13 z "
     id="bottomleft"
     sodipodi:nodetypes="cccc" />
  <path
     style="fill:#000000;fill-opacity:1;stroke:none;stroke-width:0;stroke-linecap:round;stroke-linejoin:round;stroke-miterlimit:4;stroke-dashoffset:4.15;stroke-opacity:1"
     d="M 7,13 L 13,13 L 13,20 L 7,20 L 7,13 z "
     id="bottom" />
  <g
     id="left"
     transform="translate(-2250,-868.36218)">
    <path
       transform="scale(-1,1)"
       style="fill:#000000;fill-opacity:1;stroke:none;stroke-width:0;stroke-linecap:round;stroke-linejoin:round;stroke-miterlimit:4;stroke-dashoffset:4.15;stroke-opacity:1"
       d="M -2257,875.36218 L -2250,875.36218 L -2250,881.36218 L -2257,881.36218 L -2257,875.36218 z "
       id="rect3074" />
    <path
       style="fill:url(#linearGradient3150);fill-opacity:1;stroke:none;stroke-width:0;stroke-linecap:round;stroke-linejoin:round;stroke-miterlimit:4;stroke-dashoffset:4.15;stroke-opacity:1"
       d="M 2250,875.36218 L 2251,875.36218 L 2251,881.36218 L 2250,881.36218 L 2250,875.36218 z "
       id="rect3137" />
  </g>
  <g
     id="right"
     transform="translate(-2250,-868.36218)">
    <rect
       transform="scale(-1,1)"
       style="opacity:1;fill:#000000;fill-opacity:1;stroke:none;stroke-width:0;stroke-linecap:round;stroke-linejoin:round;stroke-miterlimit:4;stroke-dasharray:none;stroke-dashoffset:4.15;stroke-opacity:1"
       id="rect3076"
       width="7"
       height="6"
       x="-2270"
       y="875.36218" />
    <path
       style="fill:url(#linearGradient3148);fill-opacity:1;stroke:none;stroke-width:0;stroke-linecap:round;stroke-linejoin:round;stroke-miterlimit:4;stroke-dashoffset:4.15;stroke-opacity:1"
       d="M 2269,875.36218 L 2270,875.36218 L 2270,881.36218 L 2269,881.36218 L 2269,875.36218 z "
       id="rect3147" />
  </g>
  <g
     id="topright"
     transform="translate(-2250,-868.36218)">
    <path
       style="opacity:1;fill:#000000;fill-opacity:1;stroke:none;stroke-width:0;stroke-linecap:round;stroke-linejoin:round;stroke-miterlimit:4;stroke-dasharray:none;stroke-dashoffset:4.15;stroke-opacity:1"
       d="M 2270,875.36218 C 2270,871.48418 2266.878,868.36218 2263,868.36218 L 2263,875.36218 L 2270,875.36218 z "
       id="path3102"
       sodipodi:nodetypes="cccc" />
    <path
       sodipodi:type="arc"
       style="opacity:1;fill:url(#radialGradient3142);fill-opacity:1;stroke:none;stroke-width:0;stroke-linecap:round;stroke-linejoin:round;stroke-miterlimit:4;stroke-dasharray:none;stroke-dashoffset:4.15;stroke-opacity:1"
       id="path3313"
       sodipodi:cx="2254.4773"
       sodipodi:cy="872.35931"
       sodipodi:rx="2.3864853"
       sodipodi:ry="2.2980971"
       d="M 2256.8638 872.35931 A 2.3864853 2.2980971 0 1 1  2252.0908,872.35931 A 2.3864853 2.2980971 0 1 1  2256.8638 872.35931 z"
       transform="matrix(-0.7403416,-0.1013013,0.1107672,0.8221857,3839.2545,382.70231)" />
    <path
       style="opacity:1;fill:url(#linearGradient3144);fill-opacity:1;stroke:none;stroke-width:0;stroke-linecap:round;stroke-linejoin:round;stroke-miterlimit:4;stroke-dasharray:none;stroke-dashoffset:4.15;stroke-opacity:1"
       d="M 2263,868.36218 C 2266.8719,868.36218 2270,871.47187 2270,875.34375 L 2270,875.36218 L 2263,875.36218 L 2263,868.36218 z "
       id="path3055"
       sodipodi:nodetypes="ccccc" />
    <path
       sodipodi:nodetypes="ccccccc"
       style="opacity:1;fill:url(#linearGradient3146);fill-opacity:1;stroke:none;stroke-width:0;stroke-linecap:round;stroke-linejoin:round;stroke-miterlimit:4;stroke-dasharray:none;stroke-dashoffset:4.15;stroke-opacity:1"
       d="M 2263,868.36218 C 2266.8792,868.36218 2270,871.48299 2270,875.36218 L 2269,875.36218 L 2269,875.33093 C 2269,872.02208 2266.3401,869.36218 2263.0312,869.36218 L 2263,869.36218 L 2263,868.36218 z "
       id="path3014" />
  </g>
  <g
     id="top">
    <rect
       transform="scale(1,-1)"
       style="fill:#000000;fill-opacity:1;stroke:none;stroke-width:0;stroke-linecap:round;stroke-linejoin:round;stroke-miterlimit:4;stroke-dasharray:none;stroke-dashoffset:4.15;stroke-opacity:1"
       id="rect3070"
       width="6"
       height="7"
       x="7"
       y="-7.0000024" />
    <path
       style="fill:url(#linearGradient7334);fill-opacity:1;stroke:none;stroke-width:0;stroke-linecap:round;stroke-linejoin:round;stroke-miterlimit:4;stroke-dashoffset:4.15;stroke-opacity:1"
       d="M 7,7 L 13,7 L 13,-5.5511151e-17 L 7,-5.5511151e-17 L 7,7 z "
       id="rect3090" />
    <rect
       y="2.6226044e-06"
       x="7"
       height="1"
       width="6"
       id="rect3152"
       style="fill:url(#linearGradient7331);fill-opacity:1;stroke:none;stroke-width:0;stroke-linecap:round;stroke-linejoin:round;stroke-miterlimit:4;stroke-dasharray:none;stroke-dashoffset:4.15;stroke-opacity:1" />
  </g>
  <path
     sodipodi:nodetypes="cccc"
     id="bottomright"
     d="M 20,13 C 20,16.878 16.878,20 13,20 L 13,13 L 20,13 z "
     style="opacity:1;fill:#000000;fill-opacity:1;stroke:none;stroke-width:0;stroke-linecap:round;stroke-linejoin:round;stroke-miterlimit:4;stroke-dasharray:none;stroke-dashoffset:4.15;stroke-opacity:1" />
  <rect
     style="opacity:0.875;fill-opacity:1;stroke:none;stroke-width:0;stroke-miterlimit:4;stroke-dasharray:none;stroke-opacity:1;fill:#008000"
     id="hint-stretch-borders"
     width="5"
     height="4.375"
     x="7.5"
     y="8" />
  <g
     style="display:none"
     inkscape:label="layer1"
     id="layer1"
     inkscape:groupmode="layer"
     transform="translate(-2763.2,-868.36218)" />
  <g
     style="display:inline"
     inkscape:label="glow"
     id="layer2"
     inkscape:groupmode="layer"
     transform="translate(-2763.2,-868.36218)" />
</svg>
